"TASK1","CHK"
"TASK2","CHK"
"TASK3","CHK"
"TASK4","CHK"
"TASK5","CHK"
"TASK6","CHK"
"TASK7","CHK"
"TASK8","CHK"
"TASK9","CHK"
"TASK10","CHK"
"TASK11","CHK"
"TASK12","CHK"
"TASK13","CHK"
"TASK14","CHK"
"TASK15","CHK"
"TASK16","CHK"
"TASK17","CHK"
"TASK18","CHK"
"TASK19","CHK"
"TASK20","CHK"
