<?xml version="1.0" encoding="UTF-8" standalone="no"?>
<!-- Created with Inkscape (http://www.inkscape.org/) -->

<svg
   version="1.1"
   id="svg629"
   width="1306.6667"
   height="1104"
   viewBox="0 0 1306.6667 1104"
   sodipodi:docname="logo_checklist_engine.svg"
   xml:space="preserve"
   inkscape:version="1.2.2 (b0a8486541, 2022-12-01)"
   xmlns:inkscape="http://www.inkscape.org/namespaces/inkscape"
   xmlns:sodipodi="http://sodipodi.sourceforge.net/DTD/sodipodi-0.dtd"
   xmlns="http://www.w3.org/2000/svg"
   xmlns:svg="http://www.w3.org/2000/svg"><defs
     id="defs633" /><sodipodi:namedview
     id="namedview631"
     pagecolor="#505050"
     bordercolor="#eeeeee"
     borderopacity="1"
     inkscape:showpageshadow="0"
     inkscape:pageopacity="0"
     inkscape:pagecheckerboard="0"
     inkscape:deskcolor="#505050"
     showgrid="false"
     inkscape:zoom="0.22627417"
     inkscape:cx="-1531.3281"
     inkscape:cy="-220.97087"
     inkscape:window-width="2404"
     inkscape:window-height="1365"
     inkscape:window-x="1032"
     inkscape:window-y="54"
     inkscape:window-maximized="1"
     inkscape:current-layer="layer1" /><g
     inkscape:groupmode="layer"
     inkscape:label="Image"
     id="g635"><g
       id="g1112"><path
         style="fill:#000000"
         d="M 388.9339,1038.2628 306.98393,956.31518 H 271.1839 c -23.20003,0 -35.80004,-0.35196 -35.80004,-1 0,-0.55 -1.96358,-1 -4.36351,-1 -4.8754,0 -14.07824,-1.53466 -17.13649,-2.85766 -1.1,-0.47587 -3.8,-1.42084 -6,-2.09995 -2.2,-0.6791 -5.8,-2.03723 -8,-3.01807 -2.2,-0.98083 -4.675,-2.06445 -5.5,-2.40805 -0.825,-0.3436 -3.75,-1.97092 -6.5,-3.61627 -2.75,-1.64535 -5.675,-3.30825 -6.5,-3.69534 -1.73543,-0.81427 -1.56738,-0.68824 -9.70619,-7.27896 -3.41341,-2.76413 -6.49254,-5.0257 -6.84252,-5.0257 -0.90472,0 -12.45129,-11.55079 -12.45129,-12.45584 0,-0.41266 -2.025,-3.00259 -4.5,-5.75538 -2.475,-2.7528 -4.5,-5.58327 -4.5,-6.28994 0,-0.70668 -0.675,-1.54388 -1.5,-1.86047 -0.825,-0.31658 -1.5,-1.01974 -1.5,-1.56258 0,-0.87636 -3.63746,-6.91001 -5.77288,-9.57579 -0.44058,-0.55 -1.39842,-2.575 -2.12853,-4.5 -1.16588,-3.07392 -3.8418,-9.18568 -6.17893,-14.11255 -0.42071,-0.88691 -1.31427,-4.48691 -1.98569,-8 -0.67142,-3.5131 -1.65476,-6.94203 -2.1852,-7.61985 -1.41866,-1.81282 -2.65117,-71.34941 -2.70332,-152.5176 l -0.0455,-70.75 h -20.000002 -20 v 102.5 102.5 h -41 -40.9999998 v -245.5 -245.5 h 40.9999998 41 v 102 102 h 20 20.000002 l 0.0424,-56.25 c 0.0488,-64.77251 1.34117,-124.2775 2.73733,-126.0392 0.52777,-0.66594 1.55079,-4.2483 2.27338,-7.9608 0.72259,-3.7125 1.63246,-6.75 2.02193,-6.75 0.38947,0 0.9964,-1.2375 1.34872,-2.75 0.90582,-3.88859 9.64973,-21.25 10.70236,-21.25 0.48063,0 0.87387,-0.52002 0.87387,-1.15561 0,-0.63558 1.125,-2.63056 2.5,-4.43328 1.375,-1.80272 2.5,-3.58176 2.5,-3.95344 1e-5,-1.90752 27.5108,-29.45767 29.4156,-29.45767 0.4113,0 2.62355,-1.51369 4.91611,-3.36376 4.50377,-3.63448 5.82883,-4.40649 16.27843,-9.48418 12.66384,-6.15363 18.04617,-8.15206 21.95576,-8.15206 1.24709,0 2.41744,-0.42736 2.60078,-0.94968 0.18333,-0.52232 4.60023,-1.49458 9.81534,-2.16058 8.98484,-1.14741 12.01799,-2.3669 12.01799,-4.83188 0,-0.59675 0.40485,-1.86639 0.89966,-2.82143 0.49482,-0.95504 1.43929,-5.33643 2.09883,-9.73643 0.65954,-4.4 1.54602,-8.45 1.96995,-9 0.42393,-0.55 1.09574,-2.8 1.49292,-5 0.39717,-2.2 1.28896,-5.125 1.98175,-6.5 0.69279,-1.375 3.19886,-6.55 5.56904,-11.5 2.37018,-4.95 6.03707,-11.3432 8.14864,-14.2071 2.11156,-2.8639 3.83921,-5.5165 3.83921,-5.8947 0,-1.841 27.78178,-29.3322 29.75,-29.4388 0.4125,-0.022 2.308,-1.3724 4.21223,-3 1.90422,-1.6277 4.04172,-2.9594 4.75,-2.9594 0.70827,0 1.28777,-0.45 1.28777,-1 0,-0.55 0.58757,-1 1.30572,-1 0.71815,0 2.76936,-1.0798 4.55824,-2.3996 1.78889,-1.3198 4.80132,-2.6902 6.69428,-3.0454 1.89297,-0.3551 3.44176,-1.0395 3.44176,-1.5209 0,-0.4813 1.4625,-1.1879 3.25,-1.5701 1.7875,-0.3822 4.375,-1.2857 5.75,-2.0078 3.12554,-1.6414 10.92797,-3.4562 14.85949,-3.4562 1.63561,0 3.16125,-0.5625 3.39031,-1.25 0.32623,-0.9792 15.18479,-1.3244 68.58333,-1.5936 l 68.16687,-0.3435 v -20.4065 -20.406404 h -102 -102 v -41 -41 h 245 245 v 41 41 h -102 -102 v 20.406404 20.4065 l 68.16687,0.3435 c 53.39854,0.2692 68.2571,0.6144 68.58333,1.5936 0.22906,0.6875 1.65392,1.25 3.16635,1.25 3.93813,0 14.08345,2.1459 14.08345,2.9789 0,0.3866 2.475,1.2567 5.5,1.9337 3.025,0.6769 5.5,1.5582 5.5,1.9582 0,0.4001 1.6875,1.3312 3.75,2.0692 2.0625,0.738 3.975,1.6159 4.25,1.9509 0.65761,0.8011 5.6715,3.6833 9.75,5.6048 1.7875,0.8421 3.25,1.9751 3.25,2.5177 0,0.5426 0.49754,0.9866 1.10564,0.9866 1.02485,0 2.86552,1.3048 10.2016,7.2319 3.62393,2.9279 14.53293,13.8369 17.46083,17.4609 5.92708,7.336 7.23193,9.1767 7.23193,10.2016 0,0.6081 0.44396,1.1056 0.98658,1.1056 0.54262,0 1.6756,1.4625 2.51773,3.25 1.92147,4.0785 4.80369,9.09239 5.60476,9.75 0.33499,0.275 1.21289,2.1875 1.95089,4.25 0.738,2.0625 1.62955,3.75 1.98121,3.75 0.35167,0 1.23314,2.475 1.95883,5.5 0.72569,3.025 1.63543,5.5 2.02166,5.5 0.83254,0 2.97834,10.1467 2.97834,14.08345 0,1.51243 0.50581,2.91849 1.12401,3.12455 0.77793,0.25931 1.28442,8.75219 1.64498,27.58334 l 0.52097,27.20866 40.10502,0.0278 c 49.53396,0.0344 98.94495,1.49196 99.42528,2.93295 0.19053,0.57157 1.77141,1.05021 3.51307,1.06366 4.09361,0.0316 11.35311,1.6526 15.16667,3.38662 10.28269,4.67554 21.43758,10.38172 24.09439,12.32527 1.70191,1.24501 3.38945,2.26366 3.75005,2.26366 0.7272,0 0.7866,0.0493 12.3491,10.2626 6.952,6.14074 11.2103,10.62268 22.7902,23.9874 0.834,0.9625 1.5163,2.02254 1.5163,2.35564 0,0.33311 1.125,1.94263 2.5,3.57673 1.375,1.63409 2.5,3.61155 2.5,4.39436 0,0.7828 0.378,1.42327 0.8399,1.42327 0.462,0 1.434,1.8 2.1601,4 0.7261,2.2 1.6261,4 2,4 0.3739,0 1.2739,1.8 2,4 0.7261,2.2 1.6366,4 2.0234,4 0.3868,0 1.2822,2.8125 1.9896,6.25 0.7075,3.4375 1.6427,6.71438 2.0782,7.28196 1.1386,1.48394 2.9088,16.6933 2.9088,24.99181 0,3.89192 0.4179,7.50373 0.9287,8.02623 0.5227,0.53458 1.0693,16.1244 1.25,35.65111 0.3363,36.31799 0.6307,38.67046 4.532,36.20958 0.9106,-0.57439 2.1357,-1.91428 2.7225,-2.97752 0.5867,-1.06324 1.3409,-2.15817 1.6759,-2.43317 0.335,-0.275 1.2129,-2.1875 1.9509,-4.25 0.738,-2.0625 1.6953,-3.75 2.1275,-3.75 0.4321,0 1.4829,-1.4625 2.3351,-3.25 2.903,-6.08902 4.5853,-8.75 5.532,-8.75 0.52,0 0.9454,-0.54667 0.9454,-1.21483 0,-1.42529 0.9674,-2.52188 12.1607,-13.78517 10.279,-10.34323 13.2877,-13 14.7218,-13 0.6053,0 1.6626,-0.9 2.3496,-2 0.6869,-1.1 1.6208,-2 2.0752,-2 0.4544,0 2.2586,-1.06534 4.0094,-2.36741 4.1214,-3.06511 25.2902,-13.35172 29.1833,-14.18111 1.65,-0.35152 4.5714,-1.3447 6.492,-2.20706 7.0778,-3.17802 54.2144,-2.59641 58.5079,0.72192 0.55,0.42508 2.8,1.09656 5,1.49218 2.2,0.39561 6.3758,1.80428 9.2796,3.13039 2.9038,1.3261 5.9413,2.41109 6.75,2.41109 0.8087,0 1.4704,0.35599 1.4704,0.79109 0,0.4351 2.56,2.08732 5.6888,3.67161 3.1289,1.58428 8.5153,5.27829 11.9699,8.20891 3.4546,2.93061 6.588,5.32839 6.9632,5.32839 0.8913,0 18.3781,17.5544 18.3781,18.44922 0,0.37712 2.0286,3.24282 4.508,6.36823 5.9642,7.51825 5.8156,7.31061 7.2867,10.18255 0.7044,1.375 2.7916,5.26082 4.6383,8.63516 1.8467,3.37434 3.6655,7.53684 4.0418,9.25 0.3763,1.71316 1.017,3.11484 1.4239,3.11484 0.4069,0 1.3525,2.25 2.1013,5 0.7488,2.75 1.7302,5 2.1808,5 0.4505,0 0.8192,81 0.8192,180 0,119.33333 -0.337,180 -1,180 -0.5604,0 -1,2.75874 -1,6.27623 0,7.96531 -1.8631,23.01526 -2.9341,23.70168 -0.4481,0.28715 -1.154,2.08506 -1.5688,3.99535 -0.8658,3.98799 -6.5683,15.56655 -10.6907,21.70692 -1.5435,2.29909 -2.8064,4.62409 -2.8064,5.16666 0,0.54257 -0.3375,1.13649 -0.75,1.31983 -0.4125,0.18333 -1.958,1.95215 -3.4345,3.9307 -4.8096,6.44526 -17.6048,19.49836 -23.5271,24.00143 -3.1836,2.42066 -5.9384,4.7387 -6.1217,5.1512 -0.1834,0.4125 -0.7773,0.75 -1.3199,0.75 -0.5425,0 -2.8675,1.25869 -5.1666,2.79708 -2.2991,1.5384 -6.4302,3.86141 -9.1802,5.16225 -2.75,1.30084 -6.125,2.9152 -7.5,3.58746 -1.375,0.67225 -3.967,1.53599 -5.7601,1.91941 -1.793,0.38342 -4.5088,1.32008 -6.035,2.08146 -1.5262,0.76139 -5.4592,1.68597 -8.7399,2.05463 -3.2808,0.36866 -6.5929,1.16837 -7.3604,1.77712 -1.7698,1.40382 -35.9704,1.40674 -36.9363,0.003 -0.3676,-0.53415 -4.2683,-1.55822 -8.6682,-2.27571 -4.4,-0.71749 -8.45,-1.64463 -9,-2.06033 -0.55,-0.4157 -3.1375,-1.36947 -5.75,-2.11949 -2.6125,-0.75002 -4.75,-1.6442 -4.75,-1.98707 0,-0.34287 -1.8,-1.16269 -4,-1.82182 -2.2,-0.65914 -4,-1.59461 -4,-2.07884 0,-0.48422 -1.3804,-1.18359 -3.0676,-1.55415 -1.6871,-0.37056 -3.3103,-1.30632 -3.607,-2.07946 -0.2966,-0.77313 -1.1624,-1.4057 -1.9239,-1.4057 -0.7615,0 -1.9466,-0.9 -2.6336,-2 -0.6869,-1.1 -1.7316,-2 -2.3214,-2 -0.5898,0 -2.3657,-1.35 -3.9465,-3 -1.5808,-1.65 -3.24,-3 -3.6871,-3 -1.0611,0 -16.8129,-15.75176 -16.8129,-16.81291 0,-0.4471 -1.35,-2.10629 -3,-3.68709 -1.65,-1.5808 -3,-3.46499 -3,-4.18709 0,-0.7221 -0.4611,-1.31291 -1.0248,-1.31291 -0.5636,0 -1.4524,-1.125 -1.9752,-2.5 -0.5228,-1.375 -1.3276,-2.5 -1.7886,-2.5 -0.461,0 -1.4561,-1.575 -2.2114,-3.5 -0.7553,-1.925 -1.7044,-3.5 -2.1091,-3.5 -0.4047,0 -1.2843,-1.6875 -1.9548,-3.75 -0.6704,-2.0625 -1.8303,-4.10986 -2.5775,-4.54969 -0.7472,-0.43983 -1.3586,-1.4365 -1.3586,-2.21482 0,-1.97022 -3.2677,-3.556 -5.0539,-2.45255 -1.206,0.74504 -1.5015,6.66994 -1.7798,35.68022 -0.1841,19.20312 -0.7441,35.21242 -1.25,35.73684 -0.5039,0.5225 -0.9163,4.35931 -0.9163,8.52623 0,8.87379 -1.6441,23.65709 -2.9497,26.52379 -0.501,1.1 -1.4263,3.8 -2.0561,6 -1.2533,4.3776 -2.2461,6.7506 -6.9033,16.5 -3.7588,7.8689 -5.2005,10.2503 -6.8409,11.2997 -0.6875,0.4398 -1.25,1.4037 -1.25,2.1418 0,0.7382 -2.025,3.5945 -4.5,6.3473 -2.475,2.7528 -4.5,5.2656 -4.5,5.584 0,0.808 -16.7463,17.6272 -17.5507,17.6272 -0.3605,0 -2.9077,2.025 -5.6605,4.5 -2.7528,2.475 -5.6314,4.5 -6.39704,4.5 -0.7655,0 -1.3918,0.4254 -1.3918,0.9454 0,1.0799 -0.9778,1.6428 -15.15287,8.7224 -5.69092,2.8423 -12.14713,5.4884 -14.34713,5.8804 -2.2,0.3919 -4.45486,1.0697 -5.01079,1.5061 -1.57049,1.2329 -29.81074,2.9457 -48.56876,2.9457 -10.61363,0 -16.92045,0.3727 -16.92045,1 0,0.6637 -71.8817,0.9824 -213.75,0.9476 l -213.75,-0.053 -81.94996,-81.9475 z m 505.44996,-0.9476 c 0,-0.6366 8.26806,-1.0098 22.75,-1.0271 23.66232,-0.028 41.12289,-1.1775 42.15164,-2.7745 0.3291,-0.5108 1.58936,-1.238 2.80058,-1.6158 2.84263,-0.8868 8.99355,-7.0378 9.88034,-9.8804 0.37785,-1.2112 1.04946,-2.4371 1.49247,-2.7243 1.5611,-1.0119 2.92497,-17.6315 2.92497,-35.64267 0,-11.06612 0.39255,-18.45982 1,-18.83525 0.65006,-0.40176 1,-23.34372 1,-65.55902 v -64.94098 h 81.36284 81.3627 l 0.7374,29.75 c 0.4056,16.3625 1.0774,29.975 1.493,30.25 0.4156,0.275 1.0845,2.3 1.4865,4.5 0.7216,3.94916 8.1981,12.49092 10.9464,12.50616 0.6112,0.003 2.4611,0.71118 4.1111,1.57288 3.5782,1.86865 41.0304,2.67963 42.285,0.91563 0.3932,-0.55294 2.515,-1.6181 4.715,-2.36704 4.2761,-1.45568 9.5,-5.70707 9.5,-7.73139 0,-0.67626 0.4247,-1.37957 0.9437,-1.56291 1.2622,-0.44586 3.0394,-11.82651 3.0487,-19.52431 0,-3.40504 0.4576,-6.4691 1.0076,-6.80902 0.6603,-0.40808 1,-57.99071 1,-169.5 0,-111.50929 -0.3397,-169.09192 -1,-169.5 -0.55,-0.33992 -1,-3.87272 -1,-7.85068 0,-17.08534 -12.6255,-21.86634 -52,-19.6912 -14.5907,0.80603 -23.9999,7.18711 -23.9999,16.27614 0,1.30116 -0.4121,2.79324 -0.9157,3.31574 -0.5037,0.5225 -1.2404,14.3375 -1.6372,30.7 l -0.7216,29.75 h -81.3627 -81.36284 V 522.8742 c 0,-43.2153 -0.34957,-66.65703 -1,-67.05902 -0.60121,-0.37157 -1,-7.19019 -1,-17.09843 0,-19.31088 -1.51515,-35.05958 -3.57077,-37.1152 -0.78608,-0.78608 -1.42923,-1.93496 -1.42923,-2.55308 0,-1.5882 -5.10979,-6.73329 -6.68709,-6.73329 -0.7221,0 -1.31291,-0.37797 -1.31291,-0.83994 0,-0.46197 -1.9125,-1.40583 -4.25,-2.09746 -2.3375,-0.69164 -5.15,-1.77617 -6.25,-2.41006 -1.46778,-0.84584 -31.07259,-1.23009 -111.25,-1.44397 l -109.25,-0.29142 -0.009,-54.70858 c -0.008,-51.83361 -1.10556,-86.93159 -2.75556,-88.15522 -0.41039,-0.30434 -1.35189,-2.28648 -2.09222,-4.40474 -2.35775,-6.74606 -12.61464,-13.63695 -20.30995,-13.64485 -2.04147,-0.002 -3.85134,-0.5578 -4.08332,-1.25376 -0.6125,-1.83753 -347.88748,-1.83753 -348.5,0 -0.22917,0.6875 -1.84168,1.25251 -3.58334,1.25558 -3.92378,0.007 -10.45726,1.76936 -12.33592,3.32769 -6.89492,5.7193 -9.88071,9.90189 -11.89773,16.66673 -0.40998,1.375 -1.01262,24.325 -1.33922,51 l -0.5938,48.5 -46,0.61465 c -43.13172,0.57632 -56.5,1.24444 -56.5,2.82375 0,0.3629 -1.6425,1.25376 -3.65,1.97968 -3.22916,1.16768 -5.93191,3.43758 -10.08956,8.47369 -0.68176,0.82581 -1.7993,3.66299 -2.48342,6.30485 -0.68412,2.64186 -1.70132,5.12446 -2.26044,5.51689 -1.55974,1.09474 -1.39973,475.70257 0.16145,478.88505 0.64792,1.32079 1.45333,4.07569 1.78979,6.122 0.33647,2.04631 1.71886,5.03627 3.07197,6.64436 1.35312,1.60809 2.46372,3.30883 2.46801,3.77944 0.004,0.4706 1.01679,1.35922 2.25,1.9747 1.23321,0.61549 3.63901,1.85317 5.34621,2.75042 1.70721,0.89724 6.55975,1.92346 10.78342,2.28049 4.22367,0.35704 7.91592,1.03185 8.205,1.49959 0.28908,0.46774 23.56155,0.8681 51.71659,0.88968 l 51.19098,0.0392 81.5,81.83794 81.5,81.83794 195.25,0.1228 c 129.58194,0.082 195.25006,-0.2134 195.25006,-0.8771 z"
         id="path1109" /></g></g><g
     inkscape:groupmode="layer"
     id="layer1"
     inkscape:label="Image 1"
     style="display:inline" /><g
     inkscape:groupmode="layer"
     id="layer2"
     inkscape:label="Layer 1"><g
       id="g1277"
       transform="translate(536.3163,1581.4636)"><path
         style="display:inline;fill:#000000"
         d="m -80.3565,-1082.3006 c -3.0004,-0.7851 -35.4845,-43.0801 -40.4254,-52.6349 -3.5062,-6.7802 3.8202,-17.6774 11.8848,-17.6774 6.4654,0 10.7716,3.5688 22.8412,18.9303 5.6479,7.1883 10.8512,13.0697 11.5628,13.0697 0.7116,0 9.3727,-10.6875 19.2468,-23.75 36.58634,-48.4001 39.89865,-51.2067 50.20182,-42.5371 9.32082,7.8429 7.51834,12.4871 -18.35262,47.2871 -43.084,57.9537 -45.4418,60.3261 -56.9594,57.3123 z"
         id="path1188-3" /><path
         style="display:inline;fill:#000000"
         d="m -76.9853,-956.40005 c -5.0247,-0.81298 -32.3702,-33.88828 -42.6067,-51.53435 -6.2479,-10.7704 5.0086,-23.7017 16.2507,-18.6685 4.0608,1.8181 10.8202,9.0923 21.6148,23.2608 7.8144,10.25678 6.6365,10.95304 26.3479,-15.5743 35.60073,-47.9108 40.00685,-51.6735 50.33412,-42.9837 9.51903,8.0098 7.41158,12.8641 -23.56813,54.2872 -32.85859,43.93533 -40.87789,52.42547 -48.37269,51.21285 z"
         id="path1184-6" /><path
         style="display:inline;fill:#000000"
         d="m -76.7885,-831.38268 c -5.7351,-0.92165 -42.6686,-46.77621 -44.9287,-55.78084 -2.0325,-8.09814 8.3679,-17.23092 17.1207,-15.03409 3.8975,0.9782 9.4365,6.53695 19.5488,19.61852 5.0875,6.58139 9.8017,11.96616 10.4759,11.96616 0.6742,0 9.4082,-10.75942 19.40884,-23.90983 37.47014,-49.27138 39.53401,-50.96984 50.2127,-41.32228 8.67804,7.84009 7.60386,10.5222 -18.46501,46.10533 -34.90853,47.649 -45.81323,59.57193 -53.37323,58.35703 z"
         id="path1180-7" /><path
         style="display:inline;fill:#000000"
         d="m -79.1527,-707.07361 c -4.4497,-2.42094 -27.184,-30.63606 -37.9193,-47.06104 -7.1409,-10.92556 -5.6921,-18.09193 4.576,-22.63397 7.8231,-3.46052 12.712,-0.0202 27.5766,19.40569 4.9451,6.4625 9.5438,11.75 10.2194,11.75 0.6756,0 9.1286,-10.4625 18.7845,-23.25 37.73252,-49.96968 36.9359,-49.25146 48.44697,-43.67905 12.60273,6.10088 10.81556,11.38658 -16.32769,48.29045 -38.43138,52.25125 -47.39478,61.50956 -55.35648,57.17792 z"
         id="path1176-5" /></g><g
       id="g1340"
       transform="matrix(1.5713335,0,0,1,-274.97526,16.809273)"><path
         style="display:inline;fill:#000000"
         d="m 568.74025,468.3823 c -17.56353,-0.83678 -21.18541,-1.77042 -26.55606,-6.84551 -10.81338,-10.21831 -5.69487,-30.17136 8.73668,-34.05737 15.25153,-4.10681 198.81139,-3.6846 207.03144,0.4762 16.00495,8.10133 16.53731,29.97354 0.92602,38.04645 -6.0321,3.11932 -139.54409,4.79068 -190.13808,2.38023 z"
         id="path1190-3" /><path
         style="display:inline;fill:#000000"
         d="m 567.84343,593.45774 c -16.21559,-0.90816 -21.05875,-2.25416 -25.84063,-7.18156 -9.62318,-9.91603 -6.42577,-26.22929 6.48596,-33.09151 7.57493,-4.02586 199.38262,-3.76401 210.09468,0.28681 16.25835,6.14819 15.28731,33.19066 -1.36572,38.03415 -9.09491,2.64522 -150.89853,4.10697 -189.37429,1.95211 z"
         id="path1186-5" /><path
         style="display:inline;fill:#000000"
         d="m 604.46218,718.72893 -55.14322,-0.26705 -6.00266,-6.41688 c -11.35388,-12.13732 -8.97382,-26.66173 5.51857,-33.67737 8.90689,-4.31176 207.1179,-2.61315 213.11231,1.8263 13.24595,9.80994 10.60261,31.86815 -4.34178,36.2314 -5.7167,1.66908 -39.51,2.98327 -71,2.76113 -14.85,-0.10476 -51.81445,-0.31064 -82.14322,-0.45753 z"
         id="path1182-6" /><path
         style="display:inline;fill:#000000"
         d="m 604.46218,847.6928 -55.14322,-0.26705 -6.00266,-6.41688 c -11.35388,-12.13732 -8.97382,-26.66173 5.51857,-33.67737 8.90689,-4.31176 207.1179,-2.61315 213.11231,1.8263 13.24595,9.80994 10.60261,31.86815 -4.34178,36.2314 -5.7167,1.66908 -39.51,2.98327 -71,2.76113 -14.85,-0.10476 -51.81445,-0.31064 -82.14322,-0.45753 z"
         id="path1182-6-2" /></g></g></svg>
